﻿{
  "ssgCidrBlocks": [
    "198.252.160.0/24"
  ],
  "enableLogging": "true",
  "installationPath": "C:\\Games\\DDO",
  "keepRawData": "true",
  "enumExportPath": "..\\..\\..\\exported\\source",
  "dataExportPath": "..\\..\\..\\exported\\content"
}
