{
  "profiles": {
    "DungeonFinder.WiXHarvester Release x86": {
      "commandName": "Project",
      "commandLineArgs": "--inputPath=\"..\\..\\..\\..\\DungeonFinder\\bin\\x86\\Release\\net5.0-windows\\win-x86\\\\\""
    },
    "WSL": {
      "commandName": "WSL2",
      "distributionName": ""
    },
    "DungeonFinder.WiXHarvester Release x64 Self-contained": {
      "commandName": "Project",
      "commandLineArgs": "--inputPath=\"..\\..\\..\\..\\DungeonFinder\\bin\\x64\\Release\\net5.0-windows\\win-x64\""
    },
    "DungeonFinder.WiXHarvester Release x64": {
      "commandName": "Project",
      "commandLineArgs": "--inputPath=\"..\\..\\..\\..\\DungeonFinder\\bin\\x64\\Release\\net5.0-windows\""
    },
    "DungeonFinder.WiXHarvester Release AnyCPU Self-contained": {
      "commandName": "Project",
      "commandLineArgs": "--inputPath=\"..\\..\\..\\..\\DungeonFinder\\bin\\x64\\Release\\net5.0-windows\\win-x64\\\\\""
    },
    "DungeonFinder.WiXHarvester Release AnyCPU": {
      "commandName": "Project",
      "commandLineArgs": "--inputPath=\"..\\..\\..\\..\\DungeonFinder\\bin\\Release\\net5.0-windows\\\\\""
    }
  }
}